<?xml version="1.0" encoding="UTF-8" standalone="no"?>
<svg width="18px" height="21px" viewBox="0 0 18 21" version="1.1" xmlns="http://www.w3.org/2000/svg" xmlns:xlink="http://www.w3.org/1999/xlink" xmlns:sketch="http://www.bohemiancoding.com/sketch/ns">
    <!-- Generator: Sketch 3.4.4 (17249) - http://www.bohemiancoding.com/sketch -->
    <title>Shape + Shape + Shape</title>
    <desc>Created with Sketch.</desc>
    <defs></defs>
    <g id="Page-1" stroke="none" stroke-width="1" fill="none" fill-rule="evenodd" sketch:type="MSPage">
        <g id="Key" sketch:type="MSArtboardGroup" transform="translate(-1.000000, -2.000000)" fill="#000000">
            <g id="Shape-+-Shape-+-Shape" sketch:type="MSLayerGroup" transform="translate(1.000000, 2.000000)">
                <path d="M10.5976229,2.86128666 C8.3543104,2.86128666 6.5351229,4.54053666 6.5351229,6.61128666 C6.5351229,6.84603666 6.5586854,7.07553666 6.6033729,7.29828666 L1.6601229,11.8612867 L1.6601229,14.1112867 C1.6601229,14.5252867 2.0241229,14.8612867 2.4726229,14.8612867 L3.2851229,14.8612867 L3.2851229,14.1112867 L4.9101229,14.1112867 L4.9101229,12.6112867 L6.5351229,12.6112867 L6.5351229,11.1112867 L8.1601229,11.1112867 L9.2147479,10.1377867 C9.6461854,10.2817867 10.1125604,10.3612867 10.5976229,10.3612867 C12.8409354,10.3612867 14.6601229,8.68203666 14.6601229,6.61128666 C14.6601229,4.54053666 12.8409354,2.86128666 10.5976229,2.86128666 L10.5976229,2.86128666 Z M11.8147479,6.61278666 C11.1419979,6.61278666 10.5959979,6.10878666 10.5959979,5.48778666 C10.5959979,4.86678666 11.1419979,4.36278666 11.8147479,4.36278666 C12.4874979,4.36278666 13.0334979,4.86678666 13.0334979,5.48778666 C13.0334979,6.10878666 12.4874979,6.61278666 11.8147479,6.61278666 L11.8147479,6.61278666 Z" id="Shape" sketch:type="MSShapeGroup" transform="translate(8.160123, 8.861287) rotate(-340.000000) translate(-8.160123, -8.861287) "></path>
                <path d="M14.1814016,5.60897931 C11.9380891,5.60897931 10.1189016,7.28822931 10.1189016,9.35897931 C10.1189016,9.59372931 10.1424641,9.82322931 10.1871516,10.0459793 L5.24390164,14.6089793 L5.24390164,16.8589793 C5.24390164,17.2729793 5.60790164,17.6089793 6.05640164,17.6089793 L6.86890164,17.6089793 L6.86890164,16.8589793 L8.49390164,16.8589793 L8.49390164,15.3589793 L10.1189016,15.3589793 L10.1189016,13.8589793 L11.7439016,13.8589793 L12.7985266,12.8854793 C13.2299641,13.0294793 13.6963391,13.1089793 14.1814016,13.1089793 C16.4247141,13.1089793 18.2439016,11.4297293 18.2439016,9.35897931 C18.2439016,7.28822931 16.4247141,5.60897931 14.1814016,5.60897931 L14.1814016,5.60897931 Z M15.3985266,9.36047931 C14.7257766,9.36047931 14.1797766,8.85647931 14.1797766,8.23547931 C14.1797766,7.61447931 14.7257766,7.11047931 15.3985266,7.11047931 C16.0712766,7.11047931 16.6172766,7.61447931 16.6172766,8.23547931 C16.6172766,8.85647931 16.0712766,9.36047931 15.3985266,9.36047931 L15.3985266,9.36047931 Z" id="Shape" stroke="#FFFFFF" stroke-width="0.5" sketch:type="MSShapeGroup" transform="translate(11.743902, 11.608979) rotate(-34.000000) translate(-11.743902, -11.608979) "></path>
                <path d="M14,6.5 C15.9148875,6.5 17.5,5.17907295 17.5,3.5 C17.5,1.82092705 15.9148875,0.5 14,0.5 C12.0851125,0.5 10.5,1.82092705 10.5,3.5 C10.5,5.17907295 12.0851125,6.5 14,6.5 L14,6.5 Z M14,5.5 C12.601179,5.5 11.5,4.5823508 11.5,3.5 C11.5,2.4176492 12.601179,1.5 14,1.5 C15.398821,1.5 16.5,2.4176492 16.5,3.5 C16.5,4.5823508 15.398821,5.5 14,5.5 L14,5.5 Z" id="Shape" sketch:type="MSShapeGroup"></path>
            </g>
        </g>
    </g>
</svg>